depth,FeS2
148,6.83E-01
165,8.18E-01
166,7.27E-01
188,7.46E-01
224,1.08E+00
256,9.60E-01
276,1.05E+00
296,1.04E+00
313,1.19E+00
331,1.13E+00
352,1.27E+00
375,1.04E+00
399,1.09E+00
426,9.00E-01
450,8.63E-01
473,9.99E-01
496,1.04E+00
517,1.06E+00
541,5.53E-01
574,7.61E-01
596,9.34E-01
618,5.94E-01
639,7.70E-01
664,9.36E-01
689,1.05E+00
715,1.17E+00
750,1.18E+00
781,1.50E+00
808,1.13E+00
834,1.55E+00
865,1.10E+00
896,1.29E+00
918,2.09E+00
941,1.55E+00
964,1.08E+00
988,1.55E+00
1012,1.41E+00
1036,1.87E+00
1059,1.32E+00
1082,1.39E+00
1103,1.33E+00
1123,1.03E+00
1145,1.07E+00
1167,1.19E+00
1190,1.08E+00
1212,8.55E-01
1232,1.11E+00
1248,1.03E+00
1264,1.07E+00
1284,1.10E+00
1310,8.47E-01
1334,8.71E-01
1354,9.85E-01
1374,6.83E-01
1394,1.23E+00
1416,9.17E-01
1438,7.56E-01
1457,1.12E+00
1476,7.49E-01
1495,7.28E-01
1514,7.99E-01
1534,8.63E-01
1554,9.19E-01
1574,7.91E-01
1594,1.30E+00
1614,1.77E+00
1634,9.48E-01
1654,9.24E-01
1674,8.46E-01
1694,9.68E-01
1714,7.65E-01
1734,6.94E-01
1754,1.10E+00
1774,7.89E-01
1794,5.83E-01
1814,7.87E-01
1834,7.96E-01
1851,8.50E-01
1868,7.92E-01
1885,9.44E-01
1903,1.19E+00
1924,9.75E-01
1946,5.62E-01
1967,9.32E-01
1989,6.28E-01
2010,7.10E-01
2032,5.23E-01
2053,9.22E-01
2094,8.81E-01
2114,6.43E-01
2134,5.12E-01
2154,8.29E-01
2174,8.99E-01
2194,7.98E-01
2214,6.88E-01
2234,7.01E-01
2254,5.65E-01
2274,8.36E-01
2313,5.30E-01
2334,7.56E-01
2354,7.83E-01
2373,6.22E-01
2392,5.10E-01
2410,6.16E-01
2490,5.04E-01
2511,7.35E-01
2532,6.49E-01
2553,6.83E-01
2573,6.26E-01
2593,7.61E-01
2613,6.48E-01
2633,7.26E-01
2693,5.62E-01
2752,7.82E-01
2794,5.76E-01
2834,5.68E-01
2854,6.65E-01
2874,6.82E-01
2894,6.61E-01
2914,6.41E-01
2934,5.98E-01
2974,7.01E-01
2993,5.70E-01
3011,7.04E-01
3046,8.56E-01
3054,7.47E-01
3118,5.63E-01
3141,7.12E-01
3156,7.37E-01
3157,7.18E-01
3173,7.32E-01
3191,6.29E-01
3228,7.80E-01
3246,7.38E-01
3247,6.36E-01
